{
  "name": "data",
  "base": "PersistedModel",
  "idInjection": true,
  "options": {
    "validateUpsert": true
  },
  "properties": {
    "pressureInput": {
      "type": "number"
    },
    "idealOutput": {
      "type": "number"
    },
    "sensorOutput": {
      "type": "number"
    }
  },
  "validations": [],
  "relations": {},
  "acls": [],
  "methods": {}
}
