{
  "name": "TrueDesk",
  "base": "PersistedModel",
  "idInjection": true,
  "options": {
    "validateUpsert": true
  },
  "properties": {
    "issue": {
      "type": "string"
    },
    "subject": {
      "type": "string"
    },
    "createdBy": {
      "type": "string"
    }
  },
  "validations": [],
  "relations": {},
  "acls": [],
  "methods": {}
}
